-------------------------------------------------------------------------------
Test set: org.erum.core.view.IpRestApiTest
-------------------------------------------------------------------------------
Tests run: 1, Failures: 0, Errors: 0, Skipped: 0, Time elapsed: 8.804 sec - in org.erum.core.view.IpRestApiTest
